…
## Example

The example below demonstrates how to filter spawner escapement data for
adult spring Chinook Salmon.

``` r
library(klamathFishData)
library(tidyverse)

salmon_spawner_escapement |>
  filter(species == "spring chinook salmon" & lifestage == "adult")
#> # A tibble: 315 × 13
#>     year location                species origin lifestage estimate_type estimate
#>    <dbl> <chr>                   <chr>   <chr>  <chr>     <chr>            <dbl>
#>  1  2016 trinity river hatchery  spring… hatch… adult     <NA>              1830
#>  2  2017 trinity river hatchery  spring… hatch… adult     <NA>              1134
#>  3  2018 trinity river hatchery  spring… hatch… adult     <NA>              2488
#>  4  2016 salmon river            spring… wild   adult     <NA>               406
#>  5  2017 salmon river            spring… wild   adult     <NA>               133
#>  6  2018 salmon river            spring… wild   adult     <NA>               171
#>  7  2016 other klamath tributar… spring… wild   adult     <NA>                 1
#>  8  2017 other klamath tributar… spring… wild   adult     <NA>                 2
#>  9  2018 other klamath tributar… spring… wild   adult     <NA>                11
#> 10  2016 trinity river           spring… wild   adult     <NA>              1331
#> # ℹ 305 more rows
#> # ℹ 6 more variables: confidence_interval <dbl>, lower_bounds_estimate <dbl>,
#> #   upper_bounds_estimate <dbl>, estimation_method <chr>,
#> #   is_complete_estimate <lgl>, source <chr>
```
…
